%YAML 1.1
%TAG !u! tag:unity3d.com,2011:
--- !u!1045 &1
EditorBuildSettings:
  m_ObjectHideFlags: 0
  serializedVersion: 2
  m_Scenes:
  - enabled: 0
    path: Assets/Scenes/SampleScene.unity
    guid: 99c9720ab356a0642a771bea13969a05
  - enabled: 0
    path: Assets/PCVersion.unity
    guid: ed825d422d3804246be5a21bb7ed88e9
  - enabled: 1
    path: Assets/AndroidScaledVersion.unity
    guid: d35ac228e76524f2da32643c8b19f539
  m_configObjects: {}
